A Lazy Person's Network Analysis Workflow - Networking Archives Blog
…
sample = read_csv('https://programminghistorian.org/assets/exploring-and-analyzing-network-data-with-python/quakers_edgelist.csv')

## 
## ── Column specification ────────────────────────────────────────────────────────
## cols(
##   Source = col_character(),
##   Target = col_character()
## )

sample %>% 
  group_by(Source, Target) %>%
  tally(name = 'weight')

## # A tibble: 174 x 3
## # Groups:   Source [78]
##    Source                     Target            weight
##    <chr>                      <chr>              <int>
##  1 Alexander Parker           Sir Charles Wager      1
##  2 Alexander Skene of Newtyle Lilias Skene           1
##  3 Anthony Sharp              Samuel Clarridge       1
##  4 Anthony Sharp              Thomas Curtis          1
##  5 Anthony Sharp              William Edmundson      1
##  6 Benjamin Furly             Alexander Parker       1
##  7 Benjamin Furly             Robert Barclay         1
##  8 Benjamin Furly             William Caton          1
##  9 Benjamin Furly             William Penn           1
## 10 Dorcas Erbery              James Nayler           1
## # … with 164 more rows
…
