Tracing Itineraries in the State Papers - Networking Archives Blog
…
Measure the length with st_length()

Use mutate and st_length() to measure the length of each line and store it in a new column. This uses a ‘great circles’ formula and returns an answer in the unit used by the CRS (in this case, metres). Arrange these in descending order to get the ‘most distance travelled’:

lines_sf = lines_sf %>% mutate(distance = st_length(.))

lines_sf %>% arrange(desc(distance))

## Simple feature collection with 99 features and 2 fields
## geometry type:  LINESTRING
## dimension:      XY
## bbox:           xmin: -61.8 ymin: 1.515436 xmax: 27.13838 ymax: 56.07139
## geographic CRS: WGS 84
## # A tibble: 99 x 3
##    person_id                                                   geometry distance
##        <dbl>                                           <LINESTRING [°]>      [m]
##  1     43546 (-1.983333 50.71667, -1.087222 50.80583, -1.087222 50.805… 15063364
##  2     43775 (2.351389 48.85694, -8.530556 51.7075, -0.1255556 51.5044… 11790170
##  3     44760 (-0.1275 51.50722, -0.066 51.5275, -0.086851 1.515436, -0… 11122900
##  4      3772 (-5.066667 50.15, -5.066667 50.15, 1.4897 51.1856, -1.136…  8065940
##  5     13045 (-0.6 51.48333, -1.1 51.443, -0.337499 51.4034, -0.1275 5…  7314443
##  6     49024 (1.904167 47.90222, 1.904167 47.90222, 1.904167 47.90222,…  6506617
##  7      5715 (12.33194 45.43972, 12.33194 45.43972, 1.4897 51.1856, 10…  6191440
##  8      5586 (10.31667 43.55, -9.1604 38.7452, 1.55 52.06667, 1.2625 5…  5815678
##  9     13168 (-6.033333 54.51667, -6.033333 54.51667, -6.033333 54.516…  4936128
## 10     13845 (-0.4366443 49.12234, -1.083333 53.95, -1.083333 53.95, -…  4140303
## # … with 89 more rows

This is where the lookup table of people comes in. As you can join an sf dataframe to a regular dataframe, we’ll join the sf object to the people table, so that we can see the names of those listed at the top.

lines_sf %>% 
  left_join(sp_people, by = 'person_id') %>% 
  arrange(desc(distance))

## Simple feature collection with 99 features and 3 fields
## geometry type:  LINESTRING
## dimension:      XY
## bbox:           xmin: -61.8 ymin: 1.515436 xmax: 27.13838 ymax: 56.07139
## geographic CRS: WGS 84
## # A tibble: 99 x 4
##    person_id                                 geometry distance person_name      
##        <dbl>                         <LINESTRING [°]>      [m] <chr>            
##  1     43546 (-1.983333 50.71667, -1.087222 50.80583… 15063364 Sir Richard Plum…
##  2     43775 (2.351389 48.85694, -8.530556 51.7075, … 11790170 Sir Robert South…
##  3     44760 (-0.1275 51.50722, -0.066 51.5275, -0.0… 11122900 Sir William Rider
##  4      3772 (-5.066667 50.15, -5.066667 50.15, 1.48…  8065940 Capt. Jeffery Pe…
##  5     13045 (-0.6 51.48333, -1.1 51.443, -0.337499 …  7314443 Dudley Carleton,…
##  6     49024 (1.904167 47.90222, 1.904167 47.90222, …  6506617 Thomas Windebank 
##  7      5715 (12.33194 45.43972, 12.33194 45.43972, …  6191440 Captain Jonas Po…
##  8      5586 (10.31667 43.55, -9.1604 38.7452, 1.55 …  5815678 Captain John Hub…
##  9     13168 (-6.033333 54.51667, -6.033333 54.51667…  4936128 Duke of Schomberg
## 10     13845 (-0.4366443 49.12234, -1.083333 53.95, …  4140303 Edmund Lord Shef…
## # … with 89 more rows

This dataset is a random sample of some authors, but still the results at the top show a mixture of diplomats (e.g. Robert Southwell, Dudley Carleton), and many naval captains.

The naval captains are a special case, because measuring their distance travelled ‘as the crow flies’ grossly underestimates the total distance. A ‘least-cost path’ algorithm can be used to estimate the distance travelled by sea, but that will have to be another blog post.

Mapping spatial lines

To show how these routes look like in practice, we’ll map the travels of Thomas Windebank - son of Francis Windebank, Secretary of State of Charles I. You can see by looking at his letter origins that he travelled extensively between 1633 and 1644, sending letters from France, Spain, and Italy. He often travelled with his brother Francis, and they made the journey from Rome back to London through Italy and France together, in the spring of 1637. Many letters sent from the sons to their father during this journey have made their way to the State Papers.

sp_letters %>% 
  filter(person_id ==49024)

## # A tibble: 66 x 3
##    person_id     date place_name
##        <dbl>    <dbl> <chr>     
##  1     49024 16330728 Orleans   
##  2     49024 16331204 Orleans   
##  3     49024 16331225 Orleans   
##  4     49024 16340131 Orleans   
##  5     49024 16340221 Orleans   
##  6     49024 16340326 Orleans   
##  7     49024 16340512 Orleans   
##  8     49024 16340601 Orleans   
##  9     49024 16340603 Orleans   
## 10     49024 16340730 Angers    
## # … with 56 more rows
…
