Text Mining - Networking Archives Blog
…
We can also take the bigrams above and look for the most significant:

## # A tibble: 9,761 x 8
## # Groups:   word [7,528]
##    word              series     n     tf   idf tf_idf X2    X3   
##    <chr>             <chr>  <int>  <dbl> <dbl>  <dbl> <chr> <chr>
##  1 browne davies     SP 93     63 0.366  10.1   3.70  <NA>  <NA> 
##  2 consuls browne    SP 93     63 0.366  10.1   3.70  <NA>  <NA> 
##  3 christian iv      SP 75    308 0.349   8.16  2.85  <NA>  <NA> 
##  4 gustavus adolphus SP 95     58 0.322   8.49  2.74  <NA>  <NA> 
##  5 grand duke        SP 98     52 0.294   6.89  2.02  <NA>  <NA> 
##  6 sigismund iii     SP 88     58 0.132   9.41  1.24  <NA>  <NA> 
##  7 charles ii        SP 98     30 0.169   5.87  0.995 <NA>  <NA> 
##  8 2 copies          SP 92     40 0.124   7.46  0.927 <NA>  <NA> 
##  9 celso folio       SP 85     36 0.0826 10.1   0.834 <NA>  <NA> 
## 10 de vic            SP 75    107 0.121   6.64  0.804 <NA>  <NA> 
## # … with 9,751 more rows
…
